The Dead Key,11.99,D. M. Pulley,"2014 Winner — Amazon Breakthrough Novel Award — Grand Prize and Mystery & Thriller Fiction Winner
It’s 1998, and for years the old First Bank of Cleveland has sat abandoned, perfectly preserved, its secrets only speculated on by the outside world.
Twenty years before, amid strange staff disappearances and allegations of fraud, panicked investors sold Cleveland’s largest bank in the middle of the night, locking out customers and employees, and thwarting a looming federal investigation. In the confusion that followed, the keys to the vault’s safe-deposit boxes were lost.
In the years since, Cleveland’s wealthy businessmen kept the truth buried in the abandoned high-rise. The ransacked offices and forgotten safe-deposit boxes remain locked in time, until young engineer Iris Latch stumbles upon them during a renovation survey. What begins as a welcome break from her cubicle becomes an obsession as Iris unravels the bank’s sordid past. With each haunting revelation, Iris follows the looming shadow of the past deeper into the vault—and soon realizes that the key to the mystery comes at an astonishing price."
American Sniper: The Autobiography of the Most Lethal Sniper in U.S. Military History,14.46,Chris Kyle,"From 1999 to 2009, U.S. Navy Seal Chris Kyle recorded the most career sniper kills in United States military history. His fellow American warriors, whom he protected with deadly precision from rooftops and stealth positions during the Iraq War, called him “The Legend”; meanwhile, the enemy feared him so much they named him al-Shaitan (“the devil”) and placed a bounty on his head. Kyle, who was tragically killed in 2013, writes honestly about the pain of war—including the deaths of two close SEAL teammates—and in moving first-person passages throughout, his wife, Taya, speaks openly about the strains of war on their family, as well as on Chris. Gripping and unforgettable, Kyle’s masterful account of his extraordinary battlefield experiences ranks as one of the great war memoirs of all time."
Lone Survivor: The Eyewitness Account of Operation Redwing and the Lost Heroes of SEAL Team 10,15,"Marcus Luttrell, Patrick Robinson","Four US Navy SEALS departed one clear night in early July 2005 for the mountainous Afghanistan-Pakistan border for a reconnaissance mission. Their task was to document the activity of an al Qaeda leader rumored to be very close to Bin Laden with a small army in a Taliban stronghold. Five days later, only one of those Navy SEALS made it out alive.
This is the story of the only survivor of Operation Redwing, SEAL fire team leader Marcus Luttrell, and the extraordinary firefight that led to the largest loss of life in American Navy SEAL history. His squadmates fought valiantly beside him until he was the only one left alive, blasted by an RPG into a place where his pursuers could not find him. Over the next four days, terribly injured and presumed dead, Luttrell crawled for miles through the mountains and was taken in by sympathetic villagers who risked their lives to keep him safe from surrounding Taliban warriors.
A born and raised Texan, Marcus Luttrell takes us from the rigors of SEAL training, where he and his fellow SEALs discovered what it took to join the most elite of the American special forces, to a fight in the desolate hills of Afghanistan for which they never could have been prepared. His account of his squadmates' heroism and mutual support renders an experience that is both heartrending and life-affirming. In this rich chronicle of courage and sacrifice, honor and patriotism, Marcus Luttrell delivers a powerful narrative of modern war."
Alice's Adventures in Wonderland & Through the Looking-Glass,16.07,Lewis Carrol,"In 1862 Charles Lutwidge Dodgson, a shy Oxford mathematician with a stammer, created a story about a little girl tumbling down a rabbit hole. Thus began the immortal adventures of Alice, perhaps the most popular heroine in English literature. Countless scholars have tried to define the charm of the Alice books–with those wonderfully eccentric characters the Queen of Hearts, Tweedledum, and Tweedledee, the Cheshire Cat, Mock Turtle, the Mad Hatter et al.–by proclaiming that they really comprise a satire on language, a political allegory, a parody of Victorian children’s literature, even a reflection of contemporary ecclesiastical history. Perhaps, as Dodgson might have said, Alice is no more than a dream, a fairy tale about the trials and tribulations of growing up–or down, or all turned round–as seen through the expert eyes of a child."
A Brief History of Time,20.84,Stephen Hawkings,"A landmark volume in science writing by one of the great minds of our time, Stephen Hawking’s book explores such profound questions as: How did the universe begin—and what made its start possible? Does time always flow forward? Is the universe unending—or are there boundaries? Are there other dimensions in space? What will happen when it all ends? 
Told in language we all can understand, A Brief History of Time plunges into the exotic realms of black holes and quarks, of antimatter and “arrows of time,” of the big bang and a bigger God—where the possibilities are wondrous and unexpected. With exciting images and profound imagination, Stephen Hawking brings us closer to the ultimate secrets at the very heart of creation."
All the President's Men,4.98,"Bob Woodward,  Carl Bernstein","The full account of the Watergate scandal from the two Washington Post reporters who broke the story. This is “the work that brought down a presidency…perhaps the most influential piece of journalism in history” (Time, All-Time 100 Best Nonfiction Books).

This is the book that changed America. Published just two months before President Nixon’s resignation, All the President’s Men revealed the full scope of the Watergate scandal and introduced for the first time the mysterious “Deep Throat.” Beginning with the story of a simple burglary at Democratic headquarters and then continuing through headline after headline, Bernstein and Woodward deliver the stunning revelations and pieces in the Watergate puzzle that brought about Nixon's shocking downfall. Their explosive reports won a Pulitzer Prize for The Washington Post, toppled the president, and have since inspired generations of reporters. 

All the President’s Men is a riveting detective story, capturing the exhilarating rush of the biggest presidential scandal in U.S. history as it unfolded in real time. It is, as former New York Times managing editor Gene Roberts has called it, “maybe the single greatest reporting effort of all time.”"
"Born To Run - A Hidden Tribe, Superathletes, and the Greatest Race the World Has Never Seen - by Christopher McDougall",5.09,Random House,"Barefoot Running is the latest and hottest trend in running
Barefoot Running or shoes that simulate bare feet are the rage
Well researched
Interesting stories and research into running
Well reasoned and fascinating"
"Are You There God? It's Me, Margaret.",19.94,Judy Blume,"Faced with the difficulties of growing up and choosing a religion, a twelve-year-old girl talks over her problems with her own private God."
Charlotte's Web,3.92,"E. B. White, Kate DiCamillo","This beloved book by E. B. White, author of Stuart Little and The Trumpet of the Swan, is a classic of children's literature that is ""just about perfect.""

Some Pig. Humble. Radiant. These are the words in Charlotte's Web, high up in Zuckerman's barn. Charlotte's spiderweb tells of her feelings for a little pig named Wilbur, who simply wants a friend. They also express the love of a girl named Fern, who saved Wilbur's life when he was born the runt of his litter.

E. B. White's Newbery Honor Book is a tender novel of friendship, love, life, and death that will continue to be enjoyed by generations to come. It contains illustrations by Garth Williams, the acclaimed illustrator of E.B. White's Stuart Little and Laura Ingalls Wilder's Little House series, among many other books.

Supports the Common Core State Standards"
Fahrenheit 451: A Novel,9.79,Ray Bradbury,"Ray Bradbury’s internationally acclaimed novel Fahrenheit 451 is a masterwork of twentieth-century literature set in a bleak, dystopian future.

Guy Montag is a fireman. In his world, where television rules and literature is on the brink of extinction, firemen start fires rather than put them out. His job is to destroy the most illegal of commodities, the printed book, along with the houses in which they are hidden.

Montag never questions the destruction and ruin his actions produce, returning each day to his bland life and wife, Mildred, who spends all day with her television “family.” But then he meets an eccentric young neighbor, Clarisse, who introduces him to a past where people didn’t live in fear and to a present where one sees the world through the ideas in books instead of the mindless chatter of television.

When Mildred attempts suicide and Clarisse suddenly disappears, Montag begins to question everything he has ever known. He starts hiding books in his home, and when his pilfering is discovered, the fireman has to run for his life."
"Diary of a Wimpy Kid, Book 1",7.88,Jeff Kinney,"Boys don’t keep diaries—or do they?

The launch of an exciting and innovatively illustrated new series narrated by an unforgettable kid every family can relate to

It’s a new school year, and Greg Heffley finds himself thrust into middle school, where undersized weaklings share the hallways with kids who are taller, meaner, and already shaving. The hazards of growing up before you’re ready are uniquely revealed through words and drawings as Greg records them in his diary.

In book one of this debut series, Greg is happy to have Rowley, his sidekick, along for the ride. But when Rowley’s star starts to rise, Greg tries to use his best friend’s newfound popularity to his own advantage, kicking off a chain of events that will test their friendship in hilarious fashion.

Author/illustrator Jeff Kinney recalls the growing pains of school life and introduces a new kind of hero who epitomizes the challenges of being a kid. As Greg says in his diary, “Just don’t expect me to be all ‘Dear Diary’ this and ‘Dear Diary’ that.” Luckily for us, what Greg Heffley says he won’t do and what he actually does are two very different things.

Since its launch in May 2004 on Funbrain.com, the Web version of Diary of a Wimpy Kid has been viewed by 20 million unique online readers. This year, it is averaging 70,000 readers a day."
Great Expectations (Dover Thrift Editions),4.63,Charles Dickens,"In this unflaggingly suspenseful story of aspirations and moral redemption, humble, orphaned Pip, a ward of his short-tempered older sister and her husband, Joe, is apprenticed to the dirty work of the forge but dares to dream of becoming a gentleman. And, indeed, it seems as though that dream is destined to come to pass — because one day, under sudden and enigmatic circumstances, he finds himself in possession of ""great expectations."" In telling Pip's story, Dickens traces a boy's path from a hardscrabble rural life to the teeming streets of 19th-century London, unfolding a gripping tale of crime and guilt, revenge and reward, and love and loss. Its compelling characters include Magwitch, the fearful and fearsome convict; Estella, whose beauty is excelled only by her haughtiness; and the embittered Miss Havisham, an eccentric jilted bride.
Written in the last decade of Dickens' life, Great Expectations was praised widely and universally admired. It was his last great novel, and many critics believe it to be his finest. Readers and critics alike praised it for its masterful plot, which rises above the melodrama of some of his earlier works, and for its three-dimensional, psychologically realistic characters — characters much deeper and more interesting than the one-note caricatures of earlier novels. ""In none of his other works,"" wrote the reviewer in the 1861 Atlantic, ""does he evince a shrewder insight into real life, and a cheaper perception and knowledge of what is called the world."" To Swinburne, the novel was unparalleled in all of English fiction, with defects ""as nearly imperceptible as spots on the sun or shadows on a sunlit sea."" Shaw found it Dickens' ""most completely perfect book."" Now this inexpensive edition invites modern readers to savor this timeless masterpiece, teeming with colorful characters, unexpected plot twists, and Dickens' vivid rendering of the vast tapestry of mid-Victorian England."
Harry Potter and the Sorcerer's Stone,7.48,J. K. Rowling,"Harry Potter has no idea how famous he is. That's because he's being raised by his miserable aunt and uncle who are terrified Harry will learn that he's really a wizard, just as his parents were. But everything changes when Harry is summoned to attend an infamous school for wizards, and he begins to discover some clues about his illustrious birthright. From the surprising way he is greeted by a lovable giant, to the unique curriculum and colorful faculty at his unusual school, Harry finds himself drawn deep inside a mystical world he never knew existed and closer to his own noble destiny."
The Age of Innocence (Signet Classics),5.95,"Edith WhartonEdith Wharton’s masterpiece brings to life the grandeur and hypocrisy of a gilded age. Set among the very rich in 1870s New York, it tells the story of Newland Archer, a young lawyer engaged to marry virginal socialite May Welland, when he meets her cousin, Countess Ellen Olenska, a woman unbound by convention and surrounded by scandal. As all three are drawn into a love triangle filled with sensuality, subtlety, and betrayal, Archer faces a harrowing choice between happiness and the social code that has ruled his life. The resulting tale of thwarted love is filled with irony and surprise, struggle and acceptance. Recipient of the first Pulitzer Prize for fiction ever awarded to a woman, this great novel paints a timeless portrait of “society” still unmatched in American literature—an arbitrary, capricious social elite that professes inviolable standards but readily abandons them for greed and desire.",
Valley of the Dolls,8.41,Jacqueline Susann ,"Dolls: red or black; capsules or tablets; washed down with vodka or swallowed straight—for Anne, Neely, and Jennifer, it doesn’t matter, as long as the pill bottle is within easy reach. These three women become best friends when they are young and struggling in New York City and then climb to the top of the entertainment industry—only to find that there is no place left to go but down—into the Valley of the Dolls."
